0.0,2.42635377785e-13
10.0,9.45337887789e-14
20.0,8.28115315233e-14
30.0,9.46842866325e-14
40.0,3.57864584169e-14
50.0,2.62806600167e-13
60.0,3.12088952523e-13
70.0,4.21184026697e-14
80.0,2.17484462965e-13
90.0,3.27157668511e-14
100.0,1.2337939184e-14
110.0,1.72894542986e-13
120.0,2.18844142191e-13
130.0,1.87516372777e-13
140.0,1.41425168232e-13
150.0,6.71394981051e-14
160.0,1.13144492815e-13
170.0,2.1789566059e-13
180.0,1.00115989028e-13
190.0,3.74379034224e-13
200.0,4.23536124274e-13
210.0,1.26278249675e-13
220.0,2.31991112905e-14
230.0,1.19246785385e-13
240.0,1.00576935157e-13
250.0,1.87126724976e-13
260.0,2.93939633314e-13
270.0,3.23146778819e-13
280.0,7.27994962259e-14
290.0,4.54008807512e-15
300.0,4.73744319164e-13
310.0,3.1814393147e-13
320.0,1.54690223991e-13
330.0,5.13842482851e-13
340.0,4.1178671028e-13
350.0,3.29484003905e-14
360.0,6.19869024191e-13
370.0,7.48240337832e-13
380.0,5.33250216831e-13
390.0,4.76094998278e-13
400.0,2.37748017398e-13
410.0,3.95215276204e-13
420.0,1.29717644479e-13
430.0,7.26031028762e-13
440.0,400.0
450.0,9.18752723391e-13
460.0,6.13432354161e-13
470.0,4.27958244454e-13
480.0,2.59420528198e-13
490.0,2.66232816872e-13
500.0,5.94225050145e-13
510.0,7.8055122081e-13
520.0,4.10803728178e-13
530.0,1.6517026433e-13
540.0,1.1731276047e-13
550.0,4.80433213766e-13
560.0,2.82484410972e-13
570.0,2.28164520801e-13
580.0,5.2557918994e-13
590.0,1.42585639679e-13
600.0,1.81116781866e-14
610.0,3.73001308032e-13
620.0,2.34459679054e-13
630.0,2.40368067226e-13
640.0,7.33078427278e-14
650.0,1.36685058902e-13
660.0,1.28442817379e-13
670.0,9.55618126883e-14
680.0,2.70757103025e-13
690.0,2.26502081985e-13
700.0,1.28170234305e-13
710.0,1.9612358475e-13
720.0,7.25794428228e-14
730.0,1.20861174492e-13
740.0,1.22907975717e-13
750.0,1.56969366838e-13
760.0,8.72274868816e-14
770.0,1.42884188326e-13
780.0,6.94253926564e-14
790.0,6.7698304387e-14
800.0,8.60061695352e-14
810.0,4.98545801968e-14
820.0,1.78170290106e-13
830.0,1.81898952507e-13
840.0,4.75724756438e-14
850.0,5.28891657824e-14
860.0,1.15049500577e-13
870.0,4.17226178056e-14
880.0,1.19783505686e-13
890.0,1.15033034772e-14
900.0,1.06241959995e-13
910.0,8.78747341328e-14
920.0,6.71587823492e-15
930.0,5.22074643821e-14
940.0,1.64122773619e-13
950.0,1.06251101916e-13
960.0,6.13195762154e-14
970.0,8.49431244704e-14
980.0,1.40652003032e-13
990.0,3.33293562863e-14
1000.0,9.70228119198e-14
1010.0,6.09923904552e-14
1020.0,1.01569548261e-13
1030.0,1.66626764887e-14
1040.0,5.63843275461e-14
1050.0,9.32315824044e-14
1060.0,9.46370780631e-14
1070.0,8.20049551774e-14
1080.0,1.24007834645e-13
1090.0,1.49594625108e-13
1100.0,1.23261331062e-13
1110.0,8.97080304419e-14
1120.0,1.10797066695e-13
1130.0,1.31542555592e-13
1140.0,9.68831791877e-14
1150.0,1.14054793724e-13
1160.0,1.68920327684e-13
1170.0,1.13929733409e-13
1180.0,1.18138812484e-13
1190.0,2.09733643736e-14
1200.0,1.21737321576e-13
1210.0,2.15247283278e-13
1220.0,2.16829945896e-13
1230.0,1.03066566654e-13
1240.0,2.34256782292e-13
1250.0,2.9967636856e-13
1260.0,1.40154793246e-13
1270.0,4.37598901671e-13
1280.0,2.68762651706e-13
1290.0,4.26902223426e-13
1300.0,4.8636156131e-13
1310.0,1.70886293269e-13
1320.0,1.43160493351e-13
1330.0,2.95418447336e-13
1340.0,4.85893439213e-13
1350.0,3.81846268332e-13
1360.0,2.91888395633e-13
1370.0,4.31306185079e-13
1380.0,2.14447438162e-13
1390.0,2.92954608763e-13
1400.0,1.64485896932e-13
1410.0,1.36198822133e-13
1420.0,1.73871205357e-13
1430.0,4.19519192046e-14
1440.0,5.37773644128e-14
1450.0,2.41306657237e-14
1460.0,6.19562621237e-14
1470.0,5.98138448746e-14
1480.0,6.19736237447e-14
1490.0,1.03812322896e-13
1500.0,9.10797863965e-15
1510.0,6.65871236959e-14
1520.0,1.10317643944e-13
1530.0,4.26827046858e-14
1540.0,1.09998679534e-13
1550.0,1.25770832677e-13
1560.0,3.16680726453e-14
1570.0,8.3337789711e-14
1580.0,6.38445250892e-14
1590.0,8.49782398533e-14
1600.0,2.05678699758e-14
1610.0,1.00761687433e-13
1620.0,1.02183038834e-13
1630.0,6.46320713985e-14
1640.0,4.30136750438e-14
1650.0,8.26492432667e-14
1660.0,7.27343287113e-14
1670.0,8.26624721018e-14
1680.0,9.77517539704e-14
1690.0,7.70091330784e-14
1700.0,5.97479144887e-14
1710.0,5.24975117623e-14
1720.0,3.15217000938e-14
1730.0,1.01052461407e-13
1740.0,1.03927166923e-13
1750.0,4.83922807602e-14
1760.0,1.18404002044e-13
1770.0,8.90175000958e-15
1780.0,6.04355074567e-14
1790.0,2.99528409739e-14
1800.0,4.88483599319e-14
1810.0,9.41847794521e-15
1820.0,3.33243262816e-14
1830.0,2.73208911044e-14
1840.0,5.24213072559e-14
1850.0,6.08776824565e-14
1860.0,8.47120908111e-14
1870.0,6.80768214095e-14
1880.0,2.81210943959e-14
1890.0,4.10379833048e-14
1900.0,8.48315547629e-14
1910.0,5.94864685341e-14
1920.0,7.19816940023e-14
1930.0,2.16769343477e-14
1940.0,1.08619450937e-13
1950.0,7.597790391e-15
1960.0,7.87934742848e-14
1970.0,7.71584727747e-14
1980.0,9.01770163293e-14
1990.0,7.55887937423e-14
2000.0,1.27326279036e-13
2010.0,8.72352817369e-14
2020.0,4.53658871978e-14
2030.0,6.36144153432e-14
2040.0,8.5335629881e-14
2050.0,7.92459881286e-14
2060.0,1.48036010672e-13
2070.0,9.13778163199e-14
2080.0,2.22689964274e-14
2090.0,1.69341175057e-13
2100.0,9.53017808566e-14
2110.0,3.65947586268e-14
2120.0,1.47293207047e-13
2130.0,2.01213028614e-13
2140.0,3.25378598529e-14
2150.0,1.96973725565e-13
2160.0,1.52788000704e-13
2170.0,2.54227952383e-13
2180.0,1.61210978774e-13
2190.0,2.84011028573e-13
2200.0,3.26585650271e-13
2210.0,3.21980877477e-13
2220.0,2.27581654311e-13
2230.0,1.96501492778e-13
2240.0,2.4553513205e-13
2250.0,1.52871431681e-13
2260.0,1.4367812481e-13
2270.0,1.99142786347e-13
2280.0,1.40823936267e-13
2290.0,2.07375905711e-13
2300.0,1.41425756844e-13
2310.0,9.51000063267e-14
2320.0,1.52533105589e-13
2330.0,4.01798878724e-14
2340.0,1.08407550758e-14
2350.0,4.45443907184e-14
2360.0,6.78816593544e-14
2370.0,7.44492443783e-15
2380.0,1.27829531883e-13
2390.0,7.2500614489e-14
2400.0,9.44205253487e-14
2410.0,1.09284900028e-13
2420.0,7.94903209557e-14
2430.0,1.38383136254e-13
2440.0,3.23111873764e-14
2450.0,3.85984443711e-14
2460.0,5.83088146818e-14
2470.0,7.89635683131e-14
2480.0,3.7237995086e-14
2490.0,3.01772456957e-14
2500.0,5.66503540599e-14
2510.0,2.73591513045e-14
2520.0,4.43318487476e-14
2530.0,5.20473863447e-14
2540.0,5.60651791641e-14
2550.0,7.41578327084e-14
2560.0,5.07397622828e-14
2570.0,7.7097016053e-14
2580.0,2.52129210873e-14
2590.0,2.10994245621e-14
2600.0,6.37865046657e-14
2610.0,8.70033959338e-14
2620.0,8.19157668503e-14
2630.0,7.63794812663e-14
2640.0,2.55430735735e-14
2650.0,4.5517465746e-14
2660.0,3.95613094496e-14
2670.0,9.3443260725e-15
2680.0,3.63307185586e-14
2690.0,6.39793165553e-15
2700.0,8.89338019027e-14
2710.0,8.45542207146e-14
2720.0,2.14162821738e-14
2730.0,7.55672124747e-14
2740.0,4.01298666038e-14
2750.0,8.41651864333e-14
2760.0,9.28458794014e-14
2770.0,5.90034999284e-15
2780.0,7.42487080747e-14
2790.0,3.50422426833e-14
2800.0,6.1851752558e-14
2810.0,2.94951792362e-14
2820.0,5.31659745429e-14
2830.0,5.91946051022e-14
2840.0,4.83879885773e-14
2850.0,7.31026745714e-14
2860.0,2.44817059856e-14
2870.0,3.33513570476e-14
2880.0,8.26369009518e-14
2890.0,8.46903647195e-14
2900.0,6.64758316748e-14
2910.0,1.07617075633e-13
2920.0,4.30892003033e-14
2930.0,1.17513652731e-13
2940.0,9.15124582028e-14
2950.0,1.35673176973e-13
2960.0,6.62999876855e-14
2970.0,4.95789569736e-14
2980.0,7.83178554118e-14
2990.0,2.9775026999e-14
3000.0,1.01380198191e-13
3010.0,1.79046045402e-13
3020.0,1.55169578043e-13
3030.0,2.20034974851e-13
3040.0,8.65311535266e-14
3050.0,3.0098990878e-13
3060.0,3.38718559933e-13
3070.0,1.97840782304e-13
3080.0,4.16867056454e-13
3090.0,2.72824332888e-13
3100.0,4.10776910138e-13
3110.0,4.69223420794e-13
3120.0,3.26693750052e-13
3130.0,4.06000695213e-13
3140.0,3.6514405015e-13
3150.0,3.5765987912e-13
3160.0,2.98091258844e-13
3170.0,2.58058061947e-13
3180.0,2.86293196488e-13
3190.0,2.48592582643e-13
3200.0,1.9519187051e-13
3210.0,1.46390758122e-13
3220.0,1.58648271441e-13
3230.0,1.50289882203e-13
3240.0,7.77170310376e-14
3250.0,6.50240296606e-14
3260.0,1.00067146507e-13
3270.0,4.47545689365e-14
3280.0,2.05140753996e-13
3290.0,1.00372338692e-13
3300.0,1.66216169149e-14
3310.0,1.78027495708e-13
3320.0,7.06698017164e-14
3330.0,1.04438564442e-13
3340.0,8.4820579276e-14
3350.0,9.82250166733e-14
3360.0,6.13925655236e-14
3370.0,2.75805892014e-14
3380.0,5.9518137779e-14
3390.0,6.38502759037e-14
3400.0,7.6622462623e-14
3410.0,7.13820448147e-14
3420.0,2.38262086777e-14
3430.0,1.08953500867e-13
3440.0,7.24380635344e-14
3450.0,6.02044773118e-14
3460.0,1.05062076238e-13
3470.0,3.46985515692e-14
3480.0,9.04643384546e-14
3490.0,5.66882457781e-14
3500.0,4.46668763283e-14
3510.0,4.12296038369e-14
3520.0,2.44444962035e-14
3530.0,2.00625953345e-14
3540.0,6.25889310115e-14
3550.0,4.66607634166e-14
3560.0,8.2794932515e-14
3570.0,9.12979646242e-14
3580.0,1.11067123231e-13
3590.0,1.74880955733e-14
3600.0,7.49537746971e-14
3610.0,1.17251275362e-14
3620.0,4.62124375979e-14
3630.0,4.15602242564e-14
3640.0,5.1018977087e-15
3650.0,7.51727055054e-14
3660.0,7.735821338e-14
3670.0,4.87050678137e-15
3680.0,6.88927535331e-14
3690.0,7.05134139887e-14
3700.0,3.14928970476e-14
3710.0,1.51936445124e-13
3720.0,3.73374344306e-14
3730.0,8.45509816388e-14
3740.0,6.6329462307e-14
3750.0,2.32923628754e-14
3760.0,4.48695041137e-14
3770.0,2.31767396887e-14
3780.0,3.95856245872e-14
3790.0,6.1573104371e-14
3800.0,5.33359020047e-14
3810.0,8.93046344922e-14
3820.0,7.14943420725e-14
3830.0,8.90008797393e-14
3840.0,7.34470435926e-14
3850.0,1.42225342647e-13
3860.0,7.37480628874e-14
3870.0,3.13404618669e-14
3880.0,1.40511040622e-13
3890.0,6.98153389224e-14
3900.0,8.59518762745e-14
3910.0,6.02563501826e-14
3920.0,9.91793449391e-14
3930.0,5.1633287454e-14
3940.0,1.36192278205e-13
3950.0,4.71468671262e-14
3960.0,9.63776234449e-14
3970.0,1.03852350563e-13
3980.0,1.65230487597e-13
3990.0,1.28707497211e-13
4000.0,1.54914754403e-14
4010.0,1.28707497211e-13
4020.0,1.65230487597e-13
4030.0,1.03852350563e-13
4040.0,1.49736286492e-13
4050.0,4.71468671262e-14
4060.0,1.36192278205e-13
4070.0,5.1633287454e-14
4080.0,9.91793449391e-14
4090.0,6.02563501826e-14
4100.0,8.59518762745e-14
4110.0,6.98153389224e-14
4120.0,1.34744346487e-13
4130.0,3.13404618669e-14
4140.0,7.37480628874e-14
4150.0,1.42225342647e-13
4160.0,7.34470435926e-14
4170.0,8.90008797393e-14
4180.0,7.14943420725e-14
4190.0,8.93046344922e-14
4200.0,5.50556092262e-14
4210.0,6.1573104371e-14
4220.0,3.95856245872e-14
4230.0,2.31767396887e-14
4240.0,4.48695041137e-14
4250.0,2.32923628754e-14
4260.0,6.6329462307e-14
4270.0,8.45509816388e-14
4280.0,5.87927199396e-14
4290.0,1.51936445124e-13
4300.0,3.14928970476e-14
4310.0,7.05134139887e-14
4320.0,6.88927535331e-14
4330.0,4.87050678137e-15
4340.0,7.735821338e-14
4350.0,7.51727055054e-14
4360.0,2.14565961779e-13
4370.0,4.15602242564e-14
4380.0,4.62124375979e-14
4390.0,1.17251275362e-14
4400.0,7.49537746971e-14
4410.0,1.74880955733e-14
4420.0,1.11067123231e-13
4430.0,9.12979646242e-14
4440.0,8.03493807004e-14
4450.0,4.66607634166e-14
4460.0,6.25889310115e-14
4470.0,2.00625953345e-14
4480.0,2.44444962035e-14
4490.0,4.12296038369e-14
4500.0,4.46668763283e-14
4510.0,5.66882457781e-14
4520.0,8.49643075289e-14
4530.0,3.46985515692e-14
4540.0,1.05062076238e-13
4550.0,6.02044773118e-14
4560.0,7.24380635344e-14
4570.0,1.08953500867e-13
4580.0,2.38262086777e-14
4590.0,7.13820448147e-14
4600.0,2.9445066535e-14
4610.0,6.38502759037e-14
4620.0,5.9518137779e-14
4630.0,2.75805892014e-14
4640.0,6.13925655236e-14
4650.0,9.82250166733e-14
4660.0,8.4820579276e-14
4670.0,1.04438564442e-13
4680.0,1.22771497261e-13
4690.0,1.78027495708e-13
4700.0,1.66216169149e-14
4710.0,1.00372338692e-13
4720.0,2.05140753996e-13
4730.0,4.47545689365e-14
4740.0,1.00067146507e-13
4750.0,6.50240296606e-14
4760.0,7.63270233347e-14
4770.0,1.50289882203e-13
4780.0,1.58648271441e-13
4790.0,1.46390758122e-13
4800.0,1.9519187051e-13
4810.0,2.48592582643e-13
4820.0,2.86293196488e-13
4830.0,2.58058061947e-13
4840.0,3.02068153705e-13
4850.0,3.5765987912e-13
4860.0,3.6514405015e-13
4870.0,4.06000695213e-13
4880.0,3.26693750052e-13
4890.0,4.69223420794e-13
4900.0,4.10776910138e-13
4910.0,2.72824332888e-13
4920.0,4.03296655206e-13
4930.0,1.97840782304e-13
4940.0,3.38718559933e-13
4950.0,3.0098990878e-13
4960.0,8.65311535266e-14
4970.0,2.20034974851e-13
4980.0,1.55169578043e-13
4990.0,1.79046045402e-13
5000.0,7.64604357299e-14
5010.0,2.9775026999e-14
5020.0,7.83178554118e-14
5030.0,4.95789569736e-14
5040.0,6.62999876855e-14
5050.0,1.35673176973e-13
5060.0,9.15124582028e-14
5070.0,1.17513652731e-13
5080.0,4.6591330802e-14
5090.0,1.07617075633e-13
5100.0,6.64758316748e-14
5110.0,8.46903647195e-14
5120.0,8.26369009518e-14
5130.0,3.33513570476e-14
5140.0,2.44817059856e-14
5150.0,7.31026745714e-14
5160.0,5.74841292758e-14
5170.0,5.91946051022e-14
5180.0,5.31659745429e-14
5190.0,2.94951792362e-14
5200.0,6.1851752558e-14
5210.0,3.50422426832e-14
5220.0,7.42487080747e-14
5230.0,5.90034999284e-15
5240.0,4.3143733134e-14
5250.0,8.41651864333e-14
5260.0,4.01298666038e-14
5270.0,7.55672124747e-14
5280.0,2.14162821738e-14
5290.0,8.45542207146e-14
5300.0,8.89338019027e-14
5310.0,6.39793165553e-15
5320.0,4.96431872786e-14
5330.0,9.3443260725e-15
5340.0,3.95613094496e-14
5350.0,4.5517465746e-14
5360.0,2.55430735735e-14
5370.0,7.63794812663e-14
5380.0,8.19157668503e-14
5390.0,8.70033959338e-14
5400.0,6.00746358582e-14
5410.0,2.10994245621e-14
5420.0,2.52129210873e-14
5430.0,7.7097016053e-14
5440.0,5.07397622828e-14
5450.0,7.41578327084e-14
5460.0,5.60651791641e-14
5470.0,5.20473863447e-14
5480.0,4.80070868734e-14
5490.0,2.73591513045e-14
5500.0,5.66503540599e-14
5510.0,3.01772456957e-14
5520.0,3.7237995086e-14
5530.0,7.89635683131e-14
5540.0,5.83088146818e-14
5550.0,3.85984443711e-14
5560.0,5.10052192793e-14
5570.0,1.38383136254e-13
5580.0,7.94903209557e-14
5590.0,1.09284900028e-13
5600.0,9.44205253487e-14
5610.0,7.2500614489e-14
5620.0,1.27829531883e-13
5630.0,7.44492443783e-15
5640.0,3.76536984274e-14
5650.0,4.45443907184e-14
5660.0,1.08407550758e-14
5670.0,4.01798878724e-14
5680.0,1.52533105589e-13
5690.0,9.51000063267e-14
5700.0,1.41425756844e-13
5710.0,2.07375905711e-13
5720.0,1.4285221337e-13
5730.0,1.99142786347e-13
5740.0,1.4367812481e-13
5750.0,1.52871431681e-13
5760.0,2.4553513205e-13
5770.0,1.96501492778e-13
5780.0,2.27581654311e-13
5790.0,3.21980877477e-13
5800.0,3.37312501472e-13
5810.0,2.84011028573e-13
5820.0,1.61210978774e-13
5830.0,2.54227952383e-13
5840.0,1.52788000704e-13
5850.0,1.96973725565e-13
5860.0,3.25378598529e-14
5870.0,2.01213028614e-13
5880.0,1.34406159317e-13
5890.0,3.65947586268e-14
5900.0,9.53017808566e-14
5910.0,1.69341175057e-13
5920.0,2.22689964274e-14
5930.0,9.13778163199e-14
5940.0,1.48036010672e-13
5950.0,7.92459881286e-14
5960.0,1.50100415597e-13
5970.0,6.36144153432e-14
5980.0,4.53658871978e-14
5990.0,8.72352817369e-14
6000.0,1.27326279036e-13
6010.0,7.55887937423e-14
6020.0,9.01770163293e-14
6030.0,7.71584727747e-14
6040.0,7.92257150524e-14
6050.0,7.597790391e-15
6060.0,1.08619450937e-13
6070.0,2.16769343477e-14
6080.0,7.19816940023e-14
6090.0,5.94864685341e-14
6100.0,8.48315547629e-14
6110.0,4.10379833048e-14
6120.0,3.11049051334e-14
6130.0,6.80768214095e-14
6140.0,8.47120908111e-14
6150.0,6.08776824565e-14
6160.0,5.24213072559e-14
6170.0,2.73208911044e-14
6180.0,3.33243262816e-14
6190.0,9.41847794521e-15
6200.0,4.47189888161e-14
6210.0,2.99528409739e-14
6220.0,6.04355074567e-14
6230.0,8.90175000958e-15
6240.0,1.18404002044e-13
6250.0,4.83922807602e-14
6260.0,1.03927166923e-13
6270.0,1.01052461407e-13
6280.0,7.84993608632e-14
6290.0,5.24975117623e-14
6300.0,5.97479144887e-14
6310.0,7.70091330784e-14
6320.0,9.77517539704e-14
6330.0,8.26624721018e-14
6340.0,7.27343287113e-14
6350.0,8.26492432667e-14
6360.0,3.06074300819e-14
6370.0,6.46320713985e-14
6380.0,1.02183038834e-13
6390.0,1.00761687433e-13
6400.0,2.05678699758e-14
6410.0,8.49782398533e-14
6420.0,6.38445250892e-14
6430.0,8.3337789711e-14
6440.0,2.3092770788e-14
6450.0,1.25770832677e-13
6460.0,1.09998679534e-13
6470.0,4.26827046858e-14
6480.0,1.10317643944e-13
6490.0,6.65871236959e-14
6500.0,9.10797863965e-15
6510.0,1.03812322896e-13
6520.0,6.35830568117e-14
6530.0,5.98138448746e-14
6540.0,6.19562621237e-14
6550.0,2.41306657237e-14
6560.0,5.37773644128e-14
6570.0,4.19519192046e-14
6580.0,1.73871205357e-13
6590.0,1.36198822133e-13
6600.0,1.47740938791e-13
6610.0,2.92954608763e-13
6620.0,2.14447438162e-13
6630.0,4.31306185079e-13
6640.0,2.91888395633e-13
6650.0,3.81846268332e-13
6660.0,4.85893439213e-13
6670.0,2.95418447336e-13
6680.0,1.33676070231e-13
6690.0,1.70886293269e-13
6700.0,4.8636156131e-13
6710.0,4.26902223426e-13
6720.0,2.68762651706e-13
6730.0,4.37598901671e-13
6740.0,1.40154793246e-13
6750.0,2.9967636856e-13
6760.0,2.29287770437e-13
6770.0,1.03066566654e-13
6780.0,2.16829945896e-13
6790.0,2.15247283278e-13
6800.0,1.21737321576e-13
6810.0,2.09733643736e-14
6820.0,1.18138812484e-13
6830.0,1.13929733409e-13
6840.0,3.87930958386e-14
6850.0,1.14054793724e-13
6860.0,9.68831791877e-14
6870.0,1.31542555592e-13
6880.0,1.10797066695e-13
6890.0,8.97080304419e-14
6900.0,1.23261331062e-13
6910.0,1.49594625108e-13
6920.0,8.84759811121e-14
6930.0,8.20049551774e-14
6940.0,9.46370780631e-14
6950.0,9.32315824044e-14
6960.0,5.63843275461e-14
6970.0,1.66626764887e-14
6980.0,1.01569548261e-13
6990.0,6.09923904552e-14
7000.0,1.04501224609e-13
7010.0,3.33293562863e-14
7020.0,1.40652003032e-13
7030.0,8.49431244704e-14
7040.0,6.13195762154e-14
7050.0,1.06251101916e-13
7060.0,1.64122773619e-13
7070.0,5.22074643821e-14
7080.0,2.41682243406e-14
7090.0,8.78747341328e-14
7100.0,1.06241959995e-13
7110.0,1.15033034772e-14
7120.0,1.19783505686e-13
7130.0,4.17226178056e-14
7140.0,1.15049500577e-13
7150.0,5.28891657824e-14
7160.0,3.10396337183e-14
7170.0,1.81898952507e-13
7180.0,1.78170290106e-13
7190.0,4.98545801968e-14
7200.0,8.60061695352e-14
7210.0,6.7698304387e-14
7220.0,6.94253926564e-14
7230.0,1.42884188326e-13
7240.0,3.99869487273e-13
7250.0,1.56969366838e-13
7260.0,1.22907975717e-13
7270.0,1.20861174492e-13
7280.0,7.25794428228e-14
7290.0,1.9612358475e-13
7300.0,1.28170234305e-13
7310.0,2.26502081985e-13
7320.0,2.39650334939e-13
7330.0,9.55618126883e-14
7340.0,1.28442817379e-13
7350.0,1.36685058902e-13
7360.0,7.33078427278e-14
7370.0,2.40368067226e-13
7380.0,2.34459679054e-13
7390.0,3.73001308032e-13
7400.0,1.08246990835e-13
7410.0,1.42585639679e-13
7420.0,5.2557918994e-13
7430.0,2.28164520801e-13
7440.0,2.82484410972e-13
7450.0,4.80433213766e-13
7460.0,1.1731276047e-13
7470.0,1.6517026433e-13
7480.0,4.65309928663e-13
7490.0,7.8055122081e-13
7500.0,5.94225050145e-13
7510.0,2.66232816872e-13
7520.0,2.59420528198e-13
7530.0,4.27958244454e-13
7540.0,6.13432354161e-13
7550.0,9.18752723391e-13
7560.0,400.0
7570.0,7.26031028762e-13
7580.0,1.29717644479e-13
7590.0,3.95215276204e-13
7600.0,2.37748017398e-13
7610.0,4.76094998278e-13
7620.0,5.33250216831e-13
7630.0,7.48240337832e-13
7640.0,8.23735293161e-13
7650.0,3.29484003905e-14
7660.0,4.1178671028e-13
7670.0,5.13842482851e-13
7680.0,1.54690223991e-13
7690.0,3.1814393147e-13
7700.0,4.73744319164e-13
7710.0,4.54008807512e-15
7720.0,1.2744521937e-13
7730.0,3.23146778819e-13
7740.0,2.93939633314e-13
7750.0,1.87126724976e-13
7760.0,1.00576935157e-13
7770.0,1.19246785385e-13
7780.0,2.31991112905e-14
7790.0,1.26278249675e-13
7800.0,2.89211408069e-13
7810.0,3.74379034224e-13
7820.0,1.00115989028e-13
7830.0,2.1789566059e-13
7840.0,1.13144492815e-13
7850.0,6.71394981051e-14
7860.0,1.41425168232e-13
7870.0,1.87516372777e-13
7880.0,4.13351458006e-13
7890.0,1.72894542986e-13
7900.0,1.2337939184e-14
7910.0,3.27157668511e-14
7920.0,2.17484462965e-13
7930.0,4.21184026697e-14
7940.0,3.12088952523e-13
7950.0,2.62806600167e-13
7960.0,7.46917918743e-14
7970.0,9.46842866325e-14
7980.0,8.28115315233e-14
7990.0,9.45337887789e-14
