0,-22.4665345093,3267.25635973,-18.576958652000524
20,-30.3802557471,6534.51271947,-30.35187918360428
40,-16.9439684423,13069.0254389,-38.49494672679501
60,-16.9295984979,19477.8744523,-41.01063982162379
80,-23.8886115847,,
100,-7.84322424935,,
120,-2.50860579015,,
140,-17.235882594,,
160,-18.598677409,,
180,-20.3071462712,,
200,-18.867077307,,
220,-12.7522116032,,
240,-11.6228790522,,
260,-6.59189785583,,
280,-2.79514718763,,
300,-1.67870239877,,
320,2.54111450295,,
340,-2.49389502045,,
360,-4.91503755758,,
380,-6.22829151181,,
400,-7.04217664542,,
420,-10.7826127988,,
440,-10.166251665,,
460,-18.694405297,,
480,-7.65313862334,,
500,30.7976152938,,
520,36.915132262,,
540,27.865012954,,
560,-4.52171170147,,
580,-8.65840537062,,
600,-16.2017007596,,
620,-12.0372483366,,
640,-19.1107607094,,
660,-18.0748229578,,
680,-19.3240098775,,
700,-15.5365351971,,
720,-21.1810494563,,
740,-14.6769404133,,
760,-9.4578288258,,
780,-13.7571479134,,
800,-12.8024855074,,
820,-11.1078815772,,
840,-2.70811533816,,
860,-4.47634762898,,
880,-9.32947608569,,
900,-7.93210198319,,
920,-11.9740160182,,
940,-15.7376796941,,
960,-13.3720642623,,
980,-19.0422710339,,
1000,-11.9457172556,,
1020,20.1506658598,,
1040,25.1402117304,,
1060,14.9182663684,,
1080,-14.9261502079,,
1100,-26.0143078421,,
1120,-28.0608997891,,
1140,-28.4459723688,,
1160,-25.5413656272,,
1180,-25.1798958505,,
1200,-30.7847314033,,
1220,-25.826919977,,
1240,-28.4303536488,,
1260,-18.889322161,,
1280,-12.2033964254,,
1300,-18.8861472929,,
1320,-22.7058561335,,
1340,-9.7353941422,,
1360,-3.97421790957,,
1380,-9.92662427313,,
1400,-18.4079182059,,
1420,-26.1328177493,,
1440,-29.8040500717,,
1460,-21.8828110732,,
1480,-22.9859760047,,
1500,-21.3218986663,,
1520,-14.9387261048,,
1540,6.26249416241,,
1560,9.91937536101,,
1580,-2.66213232084,,
1600,-19.6006252015,,
1620,-19.3496428934,,
1640,-18.9713575796,,
1660,-22.6007202738,,
1680,-29.2977591085,,
1700,-29.930973801,,
1720,-29.9759530358,,
1740,-18.1129991484,,
1760,-26.3710074432,,
1780,-27.2548612356,,
1800,-29.0827979704,,
1820,-34.1847178918,,
1840,-26.5125118095,,
1860,-21.9699776431,,
1880,-22.6463120151,,
1900,-22.7043439869,,
1920,-24.083036259,,
1940,-34.7602379818,,
1960,-24.1096462731,,
1980,-23.1919224985,,
2000,-22.7210135979,,
2020,-21.3208206985,,
2040,-7.88604855472,,
2060,13.9048033878,,
2080,16.9971441872,,
2100,3.8592066144,,
2120,-11.2328729958,,
2140,-14.5136810521,,
2160,-17.1332385341,,
2180,-26.0744209836,,
2200,-32.6578546261,,
2220,-27.5913892381,,
2240,-24.7849105416,,
2260,-18.4635851175,,
2280,-15.0899957262,,
2300,-12.5263313241,,
2320,-12.4081201423,,
2340,-18.1663221625,,
2360,-22.3374959519,,
2380,-19.1920768929,,
2400,-14.9434436714,,
2420,-20.0058437778,,
2440,-23.4904299485,,
2460,-21.375519294,,
2480,-18.0771688473,,
2500,-16.2714134438,,
2520,-18.7920097601,,
2540,-25.6713189496,,
2560,-9.8943861049,,
2580,9.89095601651,,
2600,11.3537261631,,
2620,-10.3128843072,,
2640,-9.24053190509,,
2660,-9.11591513837,,
2680,-10.7097012898,,
2700,-18.1526789159,,
2720,-22.6596508752,,
2740,-22.6388026346,,
2760,-23.5843363615,,
2780,-20.0170283892,,
2800,-28.4398249886,,
2820,-25.3602941842,,
2840,-18.0009655451,,
2860,-23.6012700848,,
2880,-56.3015357049,,
2900,-21.5967515049,,
2920,-13.9660473231,,
2940,-23.6626513608,,
2960,-30.4376655729,,
2980,-21.4480244863,,
3000,-19.7222706646,,
3020,-28.4838005996,,
3040,-19.3000786162,,
3060,-24.7157535024,,
3080,-2.37646993859,,
3100,14.4814510924,,
3120,14.309089483,,
3140,-4.29484635687,,
3160,-11.3333473405,,
3180,-14.3538791605,,
3200,-14.7631444492,,
3220,-28.6886469533,,
3240,-33.2191932913,,
3260,-25.3533613916,,
3280,-31.2165290487,,
3300,-16.9590588215,,
3320,-21.2571568185,,
3340,-18.4868744048,,
3360,-25.2927303858,,
3380,-15.4472487923,,
3400,-11.6644169686,,
3420,-25.5443275444,,
3440,-14.7298564317,,
3460,-20.9513239005,,
3480,-18.0261355788,,
3500,-17.9062674147,,
3520,-21.6579282124,,
3540,-25.2743948465,,
3560,-20.2691087786,,
3580,-16.332781201,,
3600,-6.83376174736,,
3620,7.2784515486,,
3640,6.65189136119,,
3660,-16.0276952783,,
3680,-17.7446173628,,
3700,-18.4774208953,,
3720,-39.9433829506,,
3740,-28.0054749254,,
3760,-26.3315071852,,
3780,-32.3337492943,,
3800,-29.0500486735,,
3820,-27.732326456,,
3840,-21.0701653554,,
3860,-22.5423957324,,
3880,-28.8014489138,,
3900,-14.8233366166,,
3920,-14.5428061053,,
3940,-15.1375896509,,
3960,-12.4459977649,,
3980,-38.7459251832,,
4000,-30.9340274295,,
4020,-31.9993938886,,
4040,-25.1749949882,,
4060,-14.9447231508,,
4080,-12.177175333,,
4100,-16.8303000769,,
4120,-22.2699564707,,
4140,-4.20232345869,,
4160,-7.14401829312,,
4180,-23.6852525625,,
4200,-39.7431482824,,
4220,-24.3053328092,,
4240,-31.4992345402,,
4260,-37.5776799961,,
4280,-38.588178878,,
4300,-24.298511285,,
4320,-31.8376291371,,
4340,-17.3045611914,,
4360,-17.1602257048,,
4380,-22.7228713087,,
4400,-29.2385518603,,
4420,-20.6489718898,,
4440,-15.6330829782,,
4460,-21.959637952,,
4480,-18.7240171735,,
4500,-33.6874013356,,
4520,-25.8390881631,,
4540,-33.1103945745,,
4560,-29.3652479957,,
4580,-23.7593553012,,
4600,-31.7200906806,,
4620,-33.5342902744,,
4640,-13.2618744831,,
4660,1.50875276569,,
4680,-0.691535728521,,
4700,-14.8036747428,,
4720,-13.4346064796,,
4740,-11.1514664745,,
4760,-17.9227373177,,
4780,-21.2255660904,,
4800,-18.014026881,,
4820,-25.6039922337,,
4840,-32.6539547496,,
4860,-33.6671670949,,
4880,-18.2596237269,,
4900,-18.4181200644,,
4920,-36.9082301909,,
4940,-29.446980869,,
4960,-21.563156498,,
4980,-24.1079026907,,
5000,-35.941736742,,
5020,-25.3804479212,,
5040,-29.5079859361,,
5060,-31.5423120508,,
5080,-31.1838167605,,
5100,-31.7990452917,,
5120,-24.6394273172,,
5140,-25.0695782608,,
5160,-20.6772064051,,
5180,-12.8552423719,,
5200,-15.6738238082,,
5220,-26.5097562559,,
5240,-23.9988517388,,
5260,-19.5840491099,,
5280,-24.9621830009,,
5300,-29.6688735121,,
5320,-23.0110941525,,
5340,-34.7521378142,,
5360,-25.3173535195,,
5380,-31.8710510223,,
5400,-21.0270740826,,
5420,-20.2269961748,,
5440,-35.4458676976,,
5460,-27.6046965268,,
5480,-22.5524520894,,
5500,-19.7782147706,,
5520,-21.9557173262,,
5540,-29.6290003163,,
5560,-37.6660437665,,
5580,-47.8142732295,,
5600,-41.321595338,,
5620,-39.1839045988,,
5640,-31.7127735609,,
5660,-27.6730864339,,
5680,-11.8378030739,,
5700,-2.63666501237,,
5720,-8.76325513053,,
5740,-22.4569593593,,
5760,-21.8620408656,,
5780,-15.1388700259,,
5800,-22.9769231678,,
5820,-22.8572033374,,
5840,-16.7238216347,,
5860,-20.9388042003,,
5880,-21.1946568364,,
5900,-29.9664252441,,
5920,-17.5175337471,,
5940,-18.5470931617,,
5960,-27.0493073164,,
5980,-22.1713309276,,
6000,-29.5715811228,,
6020,-30.6073922146,,
6040,-32.4965173947,,
6060,-32.2223660182,,
6080,-31.3982241557,,
6100,-34.8042605796,,
6120,-34.9342250185,,
6140,-32.9057974204,,
6160,-40.3471832765,,
6180,-36.0166492881,,
6200,-13.8326598981,,
6220,-5.99697131589,,
6240,-14.0308126854,,
6260,-21.8705397439,,
6280,-28.3061653703,,
6300,-24.6848115603,,
6320,-41.0733094946,,
6340,-28.9324579663,,
6360,-25.9439929408,,
6380,-34.6884007872,,
6400,-30.9392715717,,
6420,-32.2404293822,,
6440,-34.8129650247,,
6460,-49.7922551981,,
6480,-25.4570321709,,
6500,-21.0407171874,,
6520,-32.4088890677,,
6540,-28.1888778579,,
6560,-49.434808991,,
6580,-26.5341627348,,
6600,-21.9413915939,,
6620,-32.3222260685,,
6640,-29.8302973255,,
6660,-32.6708922701,,
6680,-27.3393984893,,
6700,-19.1990621486,,
6720,-4.12093162859,,
6740,3.28217374504,,
6760,-4.8421909289,,
6780,-23.5406181616,,
6800,-23.496646627,,
6820,-20.2988688208,,
6840,-34.1917908418,,
6860,-29.6102642095,,
6880,-27.4988085327,,
6900,-29.8328848411,,
6920,-25.3504963908,,
6940,-34.7368107606,,
6960,-31.6942310807,,
6980,-33.1362080145,,
7000,-28.7065096676,,
7020,-29.0023776001,,
7040,-39.0449265277,,
7060,-32.7700515764,,
7080,-38.2216814175,,
7100,-32.7010587206,,
7120,-31.2624069961,,
7140,-26.928042101,,
7160,-27.2179348288,,
7180,-23.9545542076,,
7200,-35.3216967158,,
7220,-19.799737507,,
7240,-3.76452020098,,
7260,2.7652484157,,
7280,-6.10370007826,,
7300,-30.5705101967,,
7320,-22.8790078799,,
7340,-20.2751379958,,
7360,-37.6000746836,,
7380,-25.4518117496,,
7400,-29.3451669075,,
7420,-44.6857380949,,
7440,-38.4276300032,,
7460,-39.1284132236,,
7480,-44.6859797105,,
7500,-36.0902714128,,
7520,-32.4516367239,,
7540,-31.8711477851,,
7560,-30.114006511,,
7580,-33.2342881741,,
7600,-29.5193870591,,
7620,-30.2351165187,,
7640,-38.4142251328,,
7660,-27.0865827873,,
7680,-31.0095219538,,
7700,-26.1715866679,,
7720,-39.6742663985,,
7740,-25.6907208208,,
7760,-14.5411346369,,
7780,-10.8181392734,,
7800,-22.9487793041,,
7820,-28.7101170756,,
7840,-37.2000366673,,
7860,-43.6253161169,,
7880,-35.652961559,,
7900,-29.957126774,,
7920,-35.6756112782,,
7940,-38.2528117893,,
7960,-34.1827378798,,
7980,-37.2404519186,,
8000,-34.0364749293,,
8020,-43.3755775085,,
8040,-31.2908322444,,
8060,-37.6204329078,,
8080,-35.4963571849,,
8100,-38.206873966,,
8120,-52.5520319846,,
8140,-39.5365718674,,
8160,-37.3359122655,,
8180,-38.8016753511,,
8200,-38.0374693963,,
8220,-65.7292911764,,
8240,-36.5056180777,,
8260,-33.9491770004,,
8280,-14.2778993439,,
8300,-10.3514714902,,
8320,-18.3288966163,,
8340,-30.9757740964,,
8360,-22.3043099537,,
8380,-27.8573566708,,
8400,-30.6675641703,,
8420,-30.7872623708,,
8440,-31.4774168566,,
8460,-34.1973478501,,
8480,-36.4927568859,,
8500,-32.6264481507,,
8520,-26.706096626,,
8540,-28.2009646321,,
8560,-34.4380849739,,
8580,-35.0908446542,,
8600,-38.798905906,,
8620,-33.7490462886,,
8640,-40.3372382373,,
8660,-38.9955964953,,
8680,-35.4469785032,,
8700,-37.2689238764,,
8720,-31.0781455383,,
8740,-26.8039617561,,
8760,-32.5918151786,,
8780,-24.5868589977,,
8800,-9.82164616365,,
8820,-7.24291270992,,
8840,-21.0156472745,,
8860,-31.5017093254,,
8880,-35.956047031,,
8900,-38.3867901073,,
8920,-35.6954937067,,
8940,-33.102578061,,
8960,-31.8530614708,,
8980,-38.1023585208,,
9000,-46.967736549,,
9020,-34.1426036072,,
9040,-33.2560720184,,
9060,-27.7737889358,,
9080,-29.6397878618,,
9100,-38.9838069465,,
9120,-33.1479508341,,
9140,-29.668315302,,
9160,-32.328295114,,
9180,-25.9662194823,,
9200,-51.1693226481,,
9220,-25.1695594186,,
9240,-20.5359113553,,
9260,-19.4616812079,,
9280,-27.3522315215,,
9300,-26.4532198907,,
9320,-13.5377519922,,
9340,-11.1491295936,,
9360,-26.4323381779,,
9380,-21.6895554514,,
9400,-25.638853415,,
9420,-22.6949461066,,
9440,-32.7217938888,,
9460,-25.4413634516,,
9480,-33.163308768,,
9500,-31.6309720103,,
9520,-28.7065239658,,
9540,-24.0345031073,,
9560,-23.7682932371,,
9580,-39.9725767328,,
9600,-41.0676898911,,
9620,-34.51259162,,
9640,-31.6663844529,,
9660,-25.1005978149,,
9680,-28.9242386392,,
9700,-26.5729802874,,
9720,-48.1031442541,,
9740,-28.8600127751,,
9760,-23.5798292991,,
9780,-21.982254082,,
9800,-36.1101952308,,
9820,-31.7609180019,,
9840,-14.3078203045,,
9860,-14.3965900121,,
9880,-28.6211743188,,
9900,-26.5977311861,,
9920,-22.8506368408,,
9940,-22.1401761923,,
9960,-42.0987504139,,
9980,-27.6476250128,,
10000,-37.1030241706,,
10020,-31.3560837575,,
10040,-38.3958197983,,
10060,-30.4880150302,,
10080,-33.5109999707,,
10100,-43.4626024904,,
10120,-39.8630767725,,
10140,-37.5104685791,,
10160,-29.8989267174,,
10180,-27.4235266003,,
10200,-29.8157859711,,
10220,-34.3665883493,,
10240,-37.9306024947,,
10260,-35.1757194628,,
10280,-34.2802816207,,
10300,-30.5529819566,,
10320,-42.039711976,,
10340,-26.0647604482,,
10360,-13.4446716906,,
10380,-14.7771049542,,
10400,-32.5596912047,,
10420,-31.4898144271,,
10440,-26.6466039358,,
10460,-25.6227579181,,
10480,-51.0428271199,,
10500,-31.8289241359,,
10520,-39.9267312836,,
10540,-37.7011888239,,
10560,-40.0827630856,,
10580,-39.0569521612,,
10600,-35.2425932552,,
10620,-36.2956646397,,
10640,-40.1630146639,,
10660,-37.2962980156,,
10680,-36.7613518903,,
10700,-34.1034957106,,
10720,-42.9789982373,,
10740,-50.0124456967,,
10760,-40.6013556804,,
10780,-32.9333044247,,
10800,-38.9418317601,,
10820,-40.2078162484,,
10840,-40.719117925,,
10860,-28.8114748778,,
10880,-17.7141443272,,
10900,-21.4692952609,,
10920,-37.6419996656,,
10940,-44.2582013884,,
10960,-27.831969361,,
10980,-34.5343182501,,
11000,-41.5139821128,,
11020,-39.3846451316,,
11040,-39.3914446665,,
11060,-40.8801617852,,
11080,-38.8591599404,,
11100,-38.5382966765,,
11120,-33.4768648762,,
11140,-35.7100568376,,
11160,-59.4919349476,,
11180,-52.8001236319,,
11200,-43.8324283879,,
11220,-45.541861878,,
11240,-44.7567621973,,
11260,-42.5249678981,,
11280,-47.3973971235,,
11300,-50.3341613871,,
11320,-36.4487004722,,
11340,-40.129220773,,
11360,-36.7787279527,,
11380,-29.2542040409,,
11400,-17.8157447328,,
11420,-19.9142747937,,
11440,-33.1174118369,,
11460,-52.2677875708,,
11480,-31.8532802447,,
11500,-37.7189221606,,
11520,-34.9888236204,,
11540,-35.2439885111,,
11560,-36.6832394573,,
11580,-36.430101456,,
11600,-39.9873005865,,
11620,-39.6065007293,,
11640,-38.3631248436,,
11660,-37.1239378779,,
11680,-38.3275270805,,
11700,-37.1618139023,,
11720,-30.8819136492,,
11740,-32.6748722108,,
11760,-39.0961216228,,
11780,-46.6969731425,,
11800,-44.7291345298,,
11820,-35.9300538648,,
11840,-36.8903829241,,
11860,-37.2025845594,,
11880,-36.5767689315,,
11900,-23.9978872939,,
11920,-13.3317889216,,
11940,-17.7331919975,,
11960,-34.3663547761,,
11980,-35.4827548187,,
12000,-30.142449519,,
12020,-33.0958962018,,
12040,-40.9227189159,,
12060,-43.6034468624,,
12080,-38.6273864974,,
12100,-40.5494885204,,
12120,-38.7407087852,,
12140,-42.024917469,,
12160,-48.421559155,,
12180,-53.6818750558,,
12200,-45.1384381293,,
12220,-45.3176032744,,
12240,-47.2337529806,,
12260,-45.6382116823,,
12280,-48.7781819844,,
12300,-45.761300128,,
12320,-47.3034525343,,
12340,-37.813429924,,
12360,-40.7384265773,,
12380,-41.5070126774,,
12400,-41.1412774272,,
12420,-29.7797577006,,
12440,-18.3476778825,,
12460,-25.0458806254,,
12480,-37.7415725247,,
12500,-51.7346497898,,
12520,-36.26401437,,
12540,-42.9606152892,,
12560,-46.7212610985,,
12580,-46.6320635349,,
12600,-42.6887477647,,
12620,-36.3102244376,,
12640,-36.1731099282,,
12660,-42.6902490673,,
12680,-38.4045658033,,
12700,-38.1389300887,,
12720,-31.8368838351,,
12740,-34.15657699,,
12760,-30.3361125518,,
12780,-35.5468477854,,
12800,-43.1067149356,,
12820,-37.2371692529,,
12840,-43.4354263086,,
12860,-34.7423224729,,
12880,-38.2961543351,,
12900,-57.1551583493,,
12920,-50.9351733596,,
12940,-28.4609029906,,
12960,-20.7595655518,,
12980,-28.2155789949,,
13000,-36.0234188417,,
13020,-42.8735631648,,
13040,-32.3937119906,,
13060,-33.8132134188,,
13080,-40.2999996739,,
13100,-41.8779774604,,
13120,-41.6595866568,,
13140,-41.8228504613,,
13160,-40.4563832587,,
13180,-48.7374426167,,
13200,-41.8950113433,,
13220,-43.8940516474,,
13240,-39.3709506285,,
13260,-37.5610318595,,
13280,-36.7144470125,,
13300,-53.9355680942,,
13320,-51.1541980733,,
13340,-40.786908085,,
13360,-41.5753812385,,
13380,-33.4209986533,,
13400,-34.6997263749,,
13420,-46.517817952,,
13440,-39.6573652658,,
13460,-28.4633668847,,
13480,-20.8420354275,,
13500,-31.800398564,,
13520,-33.470867902,,
13540,-41.5737601609,,
13560,-36.5057744855,,
13580,-35.4304601263,,
13600,-40.2105118233,,
13620,-51.8418797282,,
13640,-43.7731148574,,
13660,-39.4548537221,,
13680,-41.2036016104,,
13700,-39.9529309376,,
13720,-44.9356184682,,
13740,-42.2528472062,,
13760,-39.5773525233,,
13780,-36.4173330426,,
13800,-42.1045695914,,
13820,-55.2526373564,,
13840,-40.7119382788,,
13860,-43.4524991305,,
13880,-47.7368696333,,
13900,-35.6356164864,,
13920,-44.6882921297,,
13940,-51.6989544786,,
13960,-45.0172037977,,
13980,-27.5007094298,,
14000,-21.1433731187,,
14020,-36.3813839718,,
14040,-33.3557955555,,
14060,-39.0379816334,,
14080,-41.3065886362,,
14100,-40.3656219036,,
14120,-38.4574930175,,
14140,-42.8032484718,,
14160,-34.4638310108,,
14180,-37.5783678856,,
14200,-42.2115431541,,
14220,-38.3220876223,,
14240,-36.9016644717,,
14260,-50.2798335508,,
14280,-36.9750200603,,
14300,-31.6386168529,,
14320,-34.2735289611,,
14340,-43.883926728,,
14360,-43.5032871415,,
14380,-38.1773264907,,
14400,-37.1282627694,,
14420,-35.0560241646,,
14440,-40.034438619,,
14460,-43.6076700668,,
14480,-38.6924495529,,
14500,-27.9498539294,,
14520,-22.6191382921,,
14540,-34.7908657572,,
14560,-37.2545611798,,
14580,-52.0866178402,,
14600,-38.8562267022,,
14620,-41.3661959109,,
14640,-47.568044644,,
14660,-39.4000149057,,
14680,-35.3403018941,,
14700,-38.945411599,,
14720,-53.8370138657,,
14740,-42.5228146955,,
14760,-46.6407168686,,
14780,-45.6208400261,,
14800,-40.3060181528,,
14820,-35.4624138201,,
14840,-37.1672456367,,
14860,-46.9866973268,,
14880,-40.8058826548,,
14900,-41.9629791061,,
14920,-34.6153112775,,
14940,-36.1186421699,,
14960,-36.4241263454,,
14980,-40.6370612087,,
15000,-38.3161290759,,
15020,-30.0641391529,,
15040,-27.5403361636,,
15060,-40.7810837985,,
15080,-37.5912420549,,
15100,-41.4238331246,,
15120,-59.3203511997,,
15140,-37.3629061109,,
15160,-39.8494206128,,
15180,-39.0745198538,,
15200,-43.8293648823,,
15220,-43.3563437817,,
15240,-50.4214466585,,
15260,-42.0704033325,,
15280,-40.1419836306,,
15300,-47.9176877585,,
15320,-39.0918310658,,
15340,-38.2443537969,,
15360,-43.2066859464,,
15380,-45.0767935226,,
15400,-56.3942959478,,
15420,-41.9350331998,,
15440,-37.5951158257,,
15460,-45.0064320345,,
15480,-42.1292773135,,
15500,-46.1411115191,,
15520,-45.6433462832,,
15540,-42.9872190486,,
15560,-48.6904104843,,
15580,-65.3975161437,,
15600,-44.4701226484,,
15620,-47.5445814762,,
15640,-38.8527899542,,
15660,-40.8891583627,,
15680,-38.4892709302,,
15700,-50.6488407462,,
15720,-53.3043361576,,
15740,-41.6287548918,,
15760,-52.7697610644,,
15780,-48.7796232582,,
15800,-44.6953692401,,
15820,-43.4153690962,,
15840,-44.4040418009,,
15860,-41.0777025588,,
15880,-40.5633165021,,
15900,-39.7418932498,,
15920,-51.9409203234,,
15940,-40.4224243611,,
15960,-38.5583530511,,
15980,-37.0236887356,,
16000,-51.7844703478,,
16020,-47.5754350007,,
16040,-35.1942455285,,
16060,-27.0149837423,,
16080,-28.5042876752,,
16100,-39.8990991776,,
16120,-34.1714808093,,
16140,-32.908964735,,
16160,-32.8531481713,,
16180,-32.8365693538,,
16200,-34.1618853747,,
16220,-38.6142576206,,
16240,-40.5415271776,,
16260,-41.5964764275,,
16280,-42.0960847096,,
16300,-45.2406220353,,
16320,-41.0219014858,,
16340,-34.9222018435,,
16360,-40.0019668865,,
16380,-52.2249474513,,
16400,-44.9152116863,,
16420,-39.9917765325,,
16440,-49.8237006405,,
16460,-41.2359440923,,
16480,-43.3946216908,,
16500,-57.6206945304,,
16520,-45.3924029392,,
16540,-36.760954084,,
16560,-31.3980459451,,
16580,-23.4116338511,,
16600,-25.2912066391,,
16620,-41.2418730625,,
16640,-33.9318752399,,
16660,-34.8523818043,,
16680,-39.182406713,,
16700,-38.6629161888,,
16720,-49.0804655472,,
16740,-42.4360634402,,
16760,-63.0237865082,,
16780,-51.9959042795,,
16800,-47.0224222829,,
16820,-47.387073869,,
16840,-47.5993865846,,
16860,-43.8366522067,,
16880,-44.3351942502,,
16900,-44.1343878863,,
16920,-42.1587273926,,
16940,-48.7654849176,,
16960,-48.3873726429,,
16980,-41.1461633477,,
17000,-48.3357431909,,
17020,-47.3325929188,,
17040,-47.9432544228,,
17060,-42.5114092609,,
17080,-45.6803066167,,
17100,-37.4860936529,,
17120,-37.9706131739,,
17140,-53.2460898996,,
17160,-49.4209400501,,
17180,-42.7147619472,,
17200,-42.5418993748,,
17220,-56.9268329776,,
17240,-45.7084620616,,
17260,-50.7691220356,,
17280,-52.3863990902,,
17300,-50.6847574855,,
17320,-46.6765118279,,
17340,-47.8670890052,,
17360,-66.6095274392,,
17380,-47.3869151369,,
17400,-48.6529453195,,
17420,-43.9474276198,,
17440,-44.1800092502,,
17460,-52.4566791176,,
17480,-50.827810331,,
17500,-50.7715780044,,
17520,-51.4365826215,,
17540,-50.245478062,,
17560,-44.2990426879,,
17580,-55.7383732124,,
17600,-53.9578073001,,
17620,-38.0966087385,,
17640,-44.261657546,,
17660,-51.9491397447,,
17680,-44.2547199538,,
17700,-44.8682966245,,
17720,-40.9880898453,,
17740,-47.3407833525,,
17760,-48.0503410806,,
17780,-50.1331749657,,
17800,-46.8488704744,,
17820,-56.620159032,,
17840,-49.8716557623,,
17860,-46.7809260474,,
17880,-47.322646128,,
17900,-55.5661737258,,
17920,-55.5385634092,,
17940,-51.9368843713,,
17960,-44.1424909101,,
17980,-51.939551349,,
18000,-48.5261424749,,
18020,-54.3494664539,,
18040,-54.8359225742,,
18060,-47.0781426633,,
18080,-50.6712465943,,
18100,-49.8389522463,,
18120,-43.6430997904,,
18140,-35.2676135271,,
18160,-40.2656217451,,
18180,-64.496865478,,
18200,-48.2141579443,,
18220,-50.6768797728,,
18240,-46.6452990711,,
18260,-45.6383763244,,
18280,-49.1494110055,,
18300,-45.7350002373,,
18320,-63.6252120309,,
18340,-48.2185277749,,
18360,-43.2187584007,,
18380,-46.1626729733,,
18400,-47.102379231,,
18420,-48.6017791263,,
18440,-65.4420226994,,
18460,-61.1761796547,,
18480,-48.4470897731,,
18500,-60.6477972169,,
18520,-47.4872199397,,
18540,-52.0968058855,,
18560,-51.631497706,,
18580,-55.4064098714,,
18600,-51.803275644,,
18620,-52.1247242525,,
18640,-45.4567327869,,
18660,-51.062890236,,
18680,-52.4239796133,,
18700,-51.6413294767,,
18720,-59.3638614683,,
18740,-45.837390419,,
18760,-48.6894931049,,
18780,-51.0622873797,,
18800,-53.9706501153,,
18820,-55.2641072941,,
18840,-48.8809678823,,
18860,-47.6679733538,,
18880,-49.9378184341,,
18900,-47.6268106363,,
18920,-54.0258946111,,
18940,-49.7916271984,,
18960,-50.5557175743,,
18980,-62.8585995178,,
19000,-48.5143496808,,
19020,-47.0093276366,,
19040,-54.6873109422,,
19060,-49.7949945213,,
19080,-53.6823156852,,
19100,-54.5679279111,,
19120,-45.2036982072,,
19140,-52.1114656895,,
19160,-59.5904085658,,
19180,-42.3310976,,
19200,-44.8777823151,,
19220,-51.8546472891,,
19240,-48.8309446745,,
19260,-43.185244106,,
19280,-50.9426237251,,
19300,-53.9434415374,,
19320,-51.644532119,,
19340,-48.3145236924,,
19360,-50.1231361582,,
19380,-51.7725470353,,
19400,-56.229469816,,
19420,-50.0037355144,,
19440,-51.1502550279,,
19460,-50.1276421317,,
19480,-54.2683495436,,
19500,-60.7803267583,,
19520,-46.57901581,,
19540,-59.3556662973,,
19560,-61.2544828373,,
19580,-50.981186238,,
19600,-62.9960483447,,
19620,-49.9484137633,,
19640,-58.4862093997,,
19660,-51.9187125631,,
19680,-48.6517454638,,
19700,-43.7184128405,,
19720,-58.4720083098,,
19740,-54.7688433435,,
19760,-51.5867768473,,
19780,-48.9203921258,,
19800,-49.6078326098,,
19820,-49.9056533628,,
19840,-60.1980954071,,
19860,-46.0324355661,,
19880,-48.4204998795,,
19900,-51.7271476243,,
19920,-48.5296138019,,
19940,-53.7541068365,,
19960,-50.6038346388,,
19980,-49.3939238443,,
20000,-55.2059969708,,
20020,-56.8966057375,,
20040,-58.2581498924,,
20060,-55.2557960045,,
20080,-54.3925520651,,
20100,-56.7359467187,,
20120,-52.822725304,,
20140,-53.2644692806,,
20160,-50.2761610264,,
20180,-62.0698050259,,
20200,-43.7889965613,,
20220,-43.2155619503,,
20240,-45.1337421119,,
20260,-51.8329797375,,
20280,-55.2189693678,,
20300,-53.3083327372,,
20320,-54.2688269136,,
20340,-52.6170156134,,
20360,-59.086017517,,
20380,-50.9945591548,,
20400,-53.2707345335,,
20420,-54.1173834157,,
20440,-48.0084602847,,
20460,-50.1386573026,,
20480,-50.5679048788,,
20500,-50.9148944592,,
20520,-53.707717548,,
20540,-52.4513964861,,
20560,-53.2451794702,,
20580,-57.4351961615,,
20600,-50.6897664096,,
20620,-49.4335339745,,
20640,-54.5597128187,,
20660,-53.0783056434,,
20680,-50.434749988,,
20700,-56.3625790453,,
20720,-51.253378964,,
20740,-44.8873723228,,
20760,-47.378335086,,
20780,-63.1525783138,,
20800,-46.0241313175,,
20820,-47.6065410031,,
20840,-53.1195920453,,
20860,-50.1368599164,,
20880,-62.9847135744,,
20900,-57.4469663937,,
20920,-57.56706008,,
20940,-49.751539423,,
20960,-47.8169143051,,
20980,-62.9741686577,,
21000,-55.6127125053,,
21020,-52.0781114828,,
21040,-46.9431714366,,
21060,-61.9146002578,,
21080,-63.5833503662,,
21100,-52.8136184351,,
21120,-56.411482622,,
21140,-50.3880273408,,
21160,-47.3511749158,,
21180,-52.0971600246,,
21200,-47.476545554,,
21220,-56.5643086744,,
21240,-46.6645612312,,
21260,-40.2464865702,,
21280,-47.0072443523,,
21300,-53.5222392979,,
21320,-48.7276315987,,
21340,-50.8745328606,,
21360,-54.4889328951,,
21380,-51.3104729281,,
21400,-51.3108752286,,
21420,-55.9124684864,,
21440,-52.2301429394,,
21460,-50.4461460584,,
21480,-50.7406310702,,
21500,-74.5440009417,,
21520,-51.7972999512,,
21540,-53.3419449341,,
21560,-71.7256698046,,
21580,-47.0125283089,,
21600,-50.7549453058,,
21620,-51.0539331561,,
21640,-57.9415848698,,
21660,-55.7927383726,,
21680,-46.2380043306,,
21700,-56.5188934171,,
21720,-49.8062569061,,
21740,-54.7489441602,,
21760,-49.3653798507,,
21780,-45.8765470789,,
21800,-74.6945544489,,
21820,-49.8966799229,,
21840,-49.1708607662,,
21860,-56.3517544923,,
21880,-48.8264382303,,
21900,-53.253693865,,
21920,-47.2694943892,,
21940,-53.4932875697,,
21960,-55.8255238604,,
21980,-46.6027646701,,
22000,-53.7931782537,,
22020,-56.0943205962,,
22040,-58.8098849558,,
22060,-58.8098849558,,
22080,-56.0943205962,,
22100,-53.7931782537,,
22120,-46.6027646701,,
22140,-55.8255238604,,
22160,-53.4932875697,,
22180,-47.2694943892,,
22200,-53.253693865,,
22220,-48.8264382303,,
22240,-56.3517544923,,
22260,-49.1708607662,,
22280,-49.8966799229,,
22300,-74.6945544489,,
22320,-45.8765470789,,
22340,-49.3653798507,,
22360,-54.7489441602,,
22380,-49.8062569061,,
22400,-56.5188934171,,
22420,-46.2380043306,,
22440,-55.7927383726,,
22460,-57.9415848698,,
22480,-51.0539331561,,
22500,-50.7549453058,,
22520,-47.0125283089,,
22540,-71.7256698046,,
22560,-53.3419449341,,
22580,-51.7972999512,,
22600,-74.5440009417,,
22620,-50.7406310702,,
22640,-50.4461460584,,
22660,-52.2301429394,,
22680,-55.9124684864,,
22700,-51.3108752286,,
22720,-51.3104729281,,
22740,-54.4889328951,,
22760,-50.8745328606,,
22780,-48.7276315987,,
22800,-53.5222392979,,
22820,-47.0072443523,,
22840,-40.2464865702,,
22860,-46.6645612312,,
22880,-56.5643086744,,
22900,-47.476545554,,
22920,-52.0971600246,,
22940,-47.3511749158,,
22960,-50.3880273408,,
22980,-56.411482622,,
23000,-52.8136184351,,
23020,-63.5833503661,,
23040,-61.9146002578,,
23060,-46.9431714366,,
23080,-52.0781114828,,
23100,-55.6127125053,,
23120,-62.9741686577,,
23140,-47.8169143051,,
23160,-49.751539423,,
23180,-57.5670600801,,
23200,-57.4469663937,,
23220,-62.9847135744,,
23240,-50.1368599164,,
23260,-53.1195920453,,
23280,-47.6065410031,,
23300,-46.0241313175,,
23320,-63.1525783138,,
23340,-47.378335086,,
23360,-44.8873723228,,
23380,-51.253378964,,
23400,-56.3625790453,,
23420,-50.434749988,,
23440,-53.0783056434,,
23460,-54.5597128187,,
23480,-49.4335339745,,
23500,-50.6897664096,,
23520,-57.4351961615,,
23540,-53.2451794702,,
23560,-52.4513964861,,
23580,-53.707717548,,
23600,-50.9148944592,,
23620,-50.5679048788,,
23640,-50.1386573026,,
23660,-48.0084602847,,
23680,-54.1173834157,,
23700,-53.2707345335,,
23720,-50.9945591548,,
23740,-59.086017517,,
23760,-52.6170156134,,
23780,-54.2688269136,,
23800,-53.3083327372,,
23820,-55.2189693678,,
23840,-51.8329797375,,
23860,-45.1337421119,,
23880,-43.2155619503,,
23900,-43.7889965613,,
23920,-62.0698050259,,
23940,-50.2761610264,,
23960,-53.2644692805,,
23980,-52.822725304,,
24000,-56.7359467187,,
24020,-54.3925520651,,
24040,-55.2557960045,,
24060,-58.2581498924,,
24080,-56.8966057375,,
24100,-55.2059969708,,
24120,-49.3939238443,,
24140,-50.6038346388,,
24160,-53.7541068365,,
24180,-48.5296138019,,
24200,-51.7271476243,,
24220,-48.4204998795,,
24240,-46.0324355661,,
24260,-60.1980954071,,
24280,-49.9056533628,,
24300,-49.6078326098,,
24320,-48.9203921258,,
24340,-51.5867768473,,
24360,-54.7688433435,,
24380,-58.4720083098,,
24400,-43.7184128405,,
24420,-48.6517454638,,
24440,-51.9187125631,,
24460,-58.4862093997,,
24480,-49.9484137633,,
24500,-62.9960483447,,
24520,-50.981186238,,
24540,-61.2544828373,,
24560,-59.3556662973,,
24580,-46.57901581,,
24600,-60.7803267583,,
24620,-54.2683495436,,
24640,-50.1276421317,,
24660,-51.1502550279,,
24680,-50.0037355145,,
24700,-56.2294698161,,
24720,-51.7725470353,,
24740,-50.1231361582,,
24760,-48.3145236924,,
24780,-51.644532119,,
24800,-53.9434415374,,
24820,-50.9426237251,,
24840,-43.185244106,,
24860,-48.8309446745,,
24880,-51.8546472891,,
24900,-44.8777823151,,
24920,-42.3310976,,
24940,-59.5904085658,,
24960,-52.1114656895,,
24980,-45.2036982072,,
25000,-54.5679279111,,
25020,-53.6823156852,,
25040,-49.7949945213,,
25060,-54.6873109422,,
25080,-47.0093276366,,
25100,-48.5143496808,,
25120,-62.8585995178,,
25140,-50.5557175743,,
25160,-49.7916271984,,
25180,-54.0258946111,,
25200,-47.6268106363,,
25220,-49.9378184341,,
25240,-47.6679733538,,
25260,-48.8809678823,,
25280,-55.2641072941,,
25300,-53.9706501153,,
25320,-51.0622873797,,
25340,-48.6894931049,,
25360,-45.837390419,,
25380,-59.3638614683,,
25400,-51.6413294767,,
25420,-52.4239796133,,
25440,-51.062890236,,
25460,-45.4567327869,,
25480,-52.1247242525,,
25500,-51.803275644,,
25520,-55.4064098714,,
25540,-51.631497706,,
25560,-52.0968058855,,
25580,-47.4872199397,,
25600,-60.6477972169,,
25620,-48.4470897731,,
25640,-61.1761796547,,
25660,-65.4420226994,,
25680,-48.6017791263,,
25700,-47.102379231,,
25720,-46.1626729734,,
25740,-43.2187584007,,
25760,-48.2185277749,,
25780,-63.6252120309,,
25800,-45.7350002373,,
25820,-49.1494110055,,
25840,-45.6383763244,,
25860,-46.6452990711,,
25880,-50.6768797728,,
25900,-48.2141579443,,
25920,-64.496865478,,
25940,-40.2656217451,,
25960,-35.2676135271,,
25980,-43.6430997904,,
26000,-49.8389522463,,
26020,-50.6712465943,,
26040,-47.0781426633,,
26060,-54.8359225742,,
26080,-54.3494664539,,
26100,-48.5261424749,,
26120,-51.939551349,,
26140,-44.1424909101,,
26160,-51.9368843713,,
26180,-55.5385634092,,
26200,-55.5661737258,,
26220,-47.322646128,,
26240,-46.7809260474,,
26260,-49.8716557623,,
26280,-56.620159032,,
26300,-46.8488704744,,
26320,-50.1331749657,,
26340,-48.0503410806,,
26360,-47.3407833525,,
26380,-40.9880898453,,
26400,-44.8682966245,,
26420,-44.2547199538,,
26440,-51.9491397447,,
26460,-44.261657546,,
26480,-38.0966087385,,
26500,-53.9578073001,,
26520,-55.7383732124,,
26540,-44.2990426879,,
26560,-50.245478062,,
26580,-51.4365826215,,
26600,-50.7715780044,,
26620,-50.827810331,,
26640,-52.4566791176,,
26660,-44.1800092502,,
26680,-43.9474276198,,
26700,-48.6529453195,,
26720,-47.3869151369,,
26740,-66.6095274392,,
26760,-47.8670890052,,
26780,-46.6765118279,,
26800,-50.6847574855,,
26820,-52.3863990902,,
26840,-50.7691220356,,
26860,-45.7084620616,,
26880,-56.9268329776,,
26900,-42.5418993748,,
26920,-42.7147619472,,
26940,-49.4209400501,,
26960,-53.2460898996,,
26980,-37.9706131739,,
27000,-37.4860936529,,
27020,-45.6803066167,,
27040,-42.5114092609,,
27060,-47.9432544228,,
27080,-47.3325929188,,
27100,-48.3357431909,,
27120,-41.1461633477,,
27140,-48.3873726429,,
27160,-48.7654849176,,
27180,-42.1587273926,,
27200,-44.1343878863,,
27220,-44.3351942502,,
27240,-43.8366522067,,
27260,-47.5993865846,,
27280,-47.387073869,,
27300,-47.0224222829,,
27320,-51.9959042795,,
27340,-63.0237865082,,
27360,-42.4360634402,,
27380,-49.0804655472,,
27400,-38.6629161888,,
27420,-39.182406713,,
27440,-34.8523818043,,
27460,-33.9318752399,,
27480,-41.2418730625,,
27500,-25.2912066391,,
27520,-23.4116338511,,
27540,-31.3980459451,,
27560,-36.760954084,,
27580,-45.3924029392,,
27600,-57.6206945304,,
27620,-43.3946216908,,
27640,-41.2359440923,,
27660,-49.8237006405,,
27680,-39.9917765325,,
27700,-44.9152116863,,
27720,-52.2249474513,,
27740,-40.0019668865,,
27760,-34.9222018435,,
27780,-41.0219014858,,
27800,-45.2406220353,,
27820,-42.0960847096,,
27840,-41.5964764275,,
27860,-40.5415271776,,
27880,-38.6142576206,,
27900,-34.1618853747,,
27920,-32.8365693538,,
27940,-32.8531481713,,
27960,-32.908964735,,
27980,-34.1714808093,,
28000,-39.8990991776,,
28020,-28.5042876752,,
28040,-27.0149837423,,
28060,-35.1942455285,,
28080,-47.5754350007,,
28100,-51.7844703478,,
28120,-37.0236887356,,
28140,-38.5583530511,,
28160,-40.4224243611,,
28180,-51.9409203234,,
28200,-39.7418932498,,
28220,-40.5633165021,,
28240,-41.0777025588,,
28260,-44.4040418009,,
28280,-43.4153690962,,
28300,-44.6953692401,,
28320,-48.7796232582,,
28340,-52.7697610644,,
28360,-41.6287548918,,
28380,-53.3043361576,,
28400,-50.6488407462,,
28420,-38.4892709302,,
28440,-40.8891583627,,
28460,-38.8527899542,,
28480,-47.5445814762,,
28500,-44.4701226484,,
28520,-65.3975161438,,
28540,-48.6904104843,,
28560,-42.9872190486,,
28580,-45.6433462832,,
28600,-46.1411115191,,
28620,-42.1292773135,,
28640,-45.0064320344,,
28660,-37.5951158257,,
28680,-41.9350331998,,
28700,-56.3942959478,,
28720,-45.0767935226,,
28740,-43.2066859464,,
28760,-38.2443537969,,
28780,-39.0918310658,,
28800,-47.9176877585,,
28820,-40.1419836306,,
28840,-42.0704033325,,
28860,-50.4214466585,,
28880,-43.3563437817,,
28900,-43.8293648823,,
28920,-39.0745198538,,
28940,-39.8494206128,,
28960,-37.3629061109,,
28980,-59.3203511997,,
29000,-41.4238331246,,
29020,-37.5912420549,,
29040,-40.7810837985,,
29060,-27.5403361636,,
29080,-30.0641391529,,
29100,-38.3161290759,,
29120,-40.6370612087,,
29140,-36.4241263454,,
29160,-36.1186421699,,
29180,-34.6153112775,,
29200,-41.9629791061,,
29220,-40.8058826548,,
29240,-46.9866973268,,
29260,-37.1672456367,,
29280,-35.4624138201,,
29300,-40.3060181528,,
29320,-45.6208400261,,
29340,-46.6407168686,,
29360,-42.5228146955,,
29380,-53.8370138657,,
29400,-38.945411599,,
29420,-35.3403018941,,
29440,-39.4000149057,,
29460,-47.568044644,,
29480,-41.3661959109,,
29500,-38.8562267022,,
29520,-52.0866178402,,
29540,-37.2545611798,,
29560,-34.7908657572,,
29580,-22.6191382921,,
29600,-27.9498539294,,
29620,-38.6924495529,,
29640,-43.6076700668,,
29660,-40.034438619,,
29680,-35.0560241646,,
29700,-37.1282627694,,
29720,-38.1773264907,,
29740,-43.5032871415,,
29760,-43.883926728,,
29780,-34.2735289611,,
29800,-31.6386168529,,
29820,-36.9750200603,,
29840,-50.2798335508,,
29860,-36.9016644717,,
29880,-38.3220876223,,
29900,-42.2115431541,,
29920,-37.5783678856,,
29940,-34.4638310108,,
29960,-42.8032484718,,
29980,-38.4574930175,,
30000,-40.3656219036,,
30020,-41.3065886362,,
30040,-39.0379816334,,
30060,-33.3557955555,,
30080,-36.3813839718,,
30100,-21.1433731187,,
30120,-27.5007094298,,
30140,-45.0172037977,,
30160,-51.6989544786,,
30180,-44.6882921297,,
30200,-35.6356164864,,
30220,-47.7368696333,,
30240,-43.4524991305,,
30260,-40.7119382788,,
30280,-55.2526373564,,
30300,-42.1045695914,,
30320,-36.4173330426,,
30340,-39.5773525233,,
30360,-42.2528472062,,
30380,-44.9356184682,,
30400,-39.9529309376,,
30420,-41.2036016104,,
30440,-39.4548537221,,
30460,-43.7731148574,,
30480,-51.8418797282,,
30500,-40.2105118233,,
30520,-35.4304601263,,
30540,-36.5057744855,,
30560,-41.5737601609,,
30580,-33.470867902,,
30600,-31.800398564,,
30620,-20.8420354275,,
30640,-28.4633668847,,
30660,-39.6573652658,,
30680,-46.517817952,,
30700,-34.6997263749,,
30720,-33.4209986533,,
30740,-41.5753812385,,
30760,-40.786908085,,
30780,-51.1541980733,,
30800,-53.9355680942,,
30820,-36.7144470125,,
30840,-37.5610318595,,
30860,-39.3709506285,,
30880,-43.8940516474,,
30900,-41.8950113433,,
30920,-48.7374426167,,
30940,-40.4563832587,,
30960,-41.8228504613,,
30980,-41.6595866569,,
31000,-41.8779774604,,
31020,-40.2999996739,,
31040,-33.8132134188,,
31060,-32.3937119906,,
31080,-42.8735631648,,
31100,-36.0234188417,,
31120,-28.2155789949,,
31140,-20.7595655518,,
31160,-28.4609029906,,
31180,-50.9351733596,,
31200,-57.1551583493,,
31220,-38.2961543351,,
31240,-34.7423224729,,
31260,-43.4354263086,,
31280,-37.2371692529,,
31300,-43.1067149356,,
31320,-35.5468477854,,
31340,-30.3361125518,,
31360,-34.15657699,,
31380,-31.8368838351,,
31400,-38.1389300887,,
31420,-38.4045658033,,
31440,-42.6902490673,,
31460,-36.1731099282,,
31480,-36.3102244376,,
31500,-42.6887477647,,
31520,-46.6320635349,,
31540,-46.7212610985,,
31560,-42.9606152892,,
31580,-36.26401437,,
31600,-51.7346497898,,
31620,-37.7415725247,,
31640,-25.0458806254,,
31660,-18.3476778825,,
31680,-29.7797577006,,
31700,-41.1412774272,,
31720,-41.5070126774,,
31740,-40.7384265773,,
31760,-37.813429924,,
31780,-47.3034525343,,
31800,-45.761300128,,
31820,-48.7781819844,,
31840,-45.6382116823,,
31860,-47.2337529806,,
31880,-45.3176032744,,
31900,-45.1384381293,,
31920,-53.6818750558,,
31940,-48.421559155,,
31960,-42.024917469,,
31980,-38.7407087852,,
32000,-40.5494885203,,
32020,-38.6273864974,,
32040,-43.6034468624,,
32060,-40.9227189159,,
32080,-33.0958962018,,
32100,-30.142449519,,
32120,-35.4827548187,,
32140,-34.3663547761,,
32160,-17.7331919975,,
32180,-13.3317889216,,
32200,-23.9978872939,,
32220,-36.5767689315,,
32240,-37.2025845594,,
32260,-36.8903829241,,
32280,-35.9300538648,,
32300,-44.7291345298,,
32320,-46.6969731425,,
32340,-39.0961216228,,
32360,-32.6748722108,,
32380,-30.8819136492,,
32400,-37.1618139023,,
32420,-38.3275270805,,
32440,-37.1239378779,,
32460,-38.3631248436,,
32480,-39.6065007293,,
32500,-39.9873005865,,
32520,-36.430101456,,
32540,-36.6832394573,,
32560,-35.2439885111,,
32580,-34.9888236204,,
32600,-37.7189221606,,
32620,-31.8532802447,,
32640,-52.2677875708,,
32660,-33.1174118369,,
32680,-19.9142747937,,
32700,-17.8157447328,,
32720,-29.2542040409,,
32740,-36.7787279527,,
32760,-40.129220773,,
32780,-36.4487004722,,
32800,-50.3341613871,,
32820,-47.3973971235,,
32840,-42.5249678981,,
32860,-44.7567621973,,
32880,-45.541861878,,
32900,-43.832428388,,
32920,-52.8001236318,,
32940,-59.4919349477,,
32960,-35.7100568376,,
32980,-33.4768648762,,
33000,-38.5382966765,,
33020,-38.8591599404,,
33040,-40.8801617852,,
33060,-39.3914446665,,
33080,-39.3846451316,,
33100,-41.5139821128,,
33120,-34.5343182501,,
33140,-27.831969361,,
33160,-44.2582013884,,
33180,-37.6419996656,,
33200,-21.4692952609,,
33220,-17.7141443272,,
33240,-28.8114748778,,
33260,-40.719117925,,
33280,-40.2078162484,,
33300,-38.9418317601,,
33320,-32.9333044247,,
33340,-40.6013556804,,
33360,-50.0124456967,,
33380,-42.9789982373,,
33400,-34.1034957106,,
33420,-36.7613518903,,
33440,-37.2962980156,,
33460,-40.1630146639,,
33480,-36.2956646397,,
33500,-35.2425932552,,
33520,-39.0569521612,,
33540,-40.0827630856,,
33560,-37.7011888239,,
33580,-39.9267312836,,
33600,-31.8289241359,,
33620,-51.0428271199,,
33640,-25.6227579181,,
33660,-26.6466039358,,
33680,-31.4898144271,,
33700,-32.5596912047,,
33720,-14.7771049542,,
33740,-13.4446716906,,
33760,-26.0647604482,,
33780,-42.039711976,,
33800,-30.5529819566,,
33820,-34.2802816207,,
33840,-35.1757194628,,
33860,-37.9306024947,,
33880,-34.3665883493,,
33900,-29.8157859711,,
33920,-27.4235266003,,
33940,-29.8989267174,,
33960,-37.5104685791,,
33980,-39.8630767725,,
34000,-43.4626024904,,
34020,-33.5109999707,,
34040,-30.4880150302,,
34060,-38.3958197983,,
34080,-31.3560837575,,
34100,-37.1030241706,,
34120,-27.6476250128,,
34140,-42.0987504139,,
34160,-22.1401761923,,
34180,-22.8506368408,,
34200,-26.5977311861,,
34220,-28.6211743188,,
34240,-14.3965900121,,
34260,-14.3078203045,,
34280,-31.7609180019,,
34300,-36.1101952308,,
34320,-21.982254082,,
34340,-23.5798292991,,
34360,-28.8600127751,,
34380,-48.1031442541,,
34400,-26.5729802874,,
34420,-28.9242386392,,
34440,-25.1005978149,,
34460,-31.6663844529,,
34480,-34.51259162,,
34500,-41.0676898911,,
34520,-39.9725767328,,
34540,-23.7682932371,,
34560,-24.0345031073,,
34580,-28.7065239658,,
34600,-31.6309720103,,
34620,-33.163308768,,
34640,-25.4413634516,,
34660,-32.7217938888,,
34680,-22.6949461066,,
34700,-25.638853415,,
34720,-21.6895554514,,
34740,-26.4323381779,,
34760,-11.1491295936,,
34780,-13.5377519922,,
34800,-26.4532198907,,
34820,-27.3522315215,,
34840,-19.4616812079,,
34860,-20.5359113553,,
34880,-25.1695594186,,
34900,-51.1693226481,,
34920,-25.9662194823,,
34940,-32.328295114,,
34960,-29.668315302,,
34980,-33.1479508341,,
35000,-38.9838069465,,
35020,-29.6397878618,,
35040,-27.7737889358,,
35060,-33.2560720184,,
35080,-34.1426036072,,
35100,-46.967736549,,
35120,-38.1023585208,,
35140,-31.8530614708,,
35160,-33.102578061,,
35180,-35.6954937067,,
35200,-38.3867901073,,
35220,-35.956047031,,
35240,-31.5017093254,,
35260,-21.0156472745,,
35280,-7.24291270992,,
35300,-9.82164616365,,
35320,-24.5868589977,,
35340,-32.5918151786,,
35360,-26.8039617561,,
35380,-31.0781455383,,
35400,-37.2689238764,,
35420,-35.4469785032,,
35440,-38.9955964953,,
35460,-40.3372382373,,
35480,-33.7490462886,,
35500,-38.798905906,,
35520,-35.0908446542,,
35540,-34.4380849739,,
35560,-28.2009646321,,
35580,-26.706096626,,
35600,-32.6264481507,,
35620,-36.4927568859,,
35640,-34.1973478501,,
35660,-31.4774168566,,
35680,-30.7872623708,,
35700,-30.6675641703,,
35720,-27.8573566708,,
35740,-22.3043099537,,
35760,-30.9757740964,,
35780,-18.3288966163,,
35800,-10.3514714902,,
35820,-14.2778993439,,
35840,-33.9491770004,,
35860,-36.5056180777,,
35880,-65.7292911764,,
35900,-38.0374693963,,
35920,-38.8016753511,,
35940,-37.3359122655,,
35960,-39.5365718674,,
35980,-52.5520319846,,
36000,-38.206873966,,
36020,-35.4963571849,,
36040,-37.6204329078,,
36060,-31.2908322444,,
36080,-43.3755775085,,
36100,-34.0364749293,,
36120,-37.2404519186,,
36140,-34.1827378798,,
36160,-38.2528117893,,
36180,-35.6756112782,,
36200,-29.957126774,,
36220,-35.652961559,,
36240,-43.6253161169,,
36260,-37.2000366673,,
36280,-28.7101170756,,
36300,-22.9487793041,,
36320,-10.8181392734,,
36340,-14.5411346369,,
36360,-25.6907208208,,
36380,-39.6742663986,,
36400,-26.1715866679,,
36420,-31.0095219538,,
36440,-27.0865827873,,
36460,-38.4142251328,,
36480,-30.2351165187,,
36500,-29.5193870591,,
36520,-33.2342881741,,
36540,-30.114006511,,
36560,-31.8711477851,,
36580,-32.4516367239,,
36600,-36.0902714128,,
36620,-44.6859797105,,
36640,-39.1284132236,,
36660,-38.4276300032,,
36680,-44.6857380949,,
36700,-29.3451669075,,
36720,-25.4518117496,,
36740,-37.6000746836,,
36760,-20.2751379958,,
36780,-22.8790078799,,
36800,-30.5705101967,,
36820,-6.10370007826,,
36840,2.7652484157,,
36860,-3.76452020098,,
36880,-19.799737507,,
36900,-35.3216967158,,
36920,-23.9545542076,,
36940,-27.2179348288,,
36960,-26.928042101,,
36980,-31.2624069961,,
37000,-32.7010587206,,
37020,-38.2216814175,,
37040,-32.7700515764,,
37060,-39.0449265277,,
37080,-29.0023776001,,
37100,-28.7065096676,,
37120,-33.1362080145,,
37140,-31.6942310807,,
37160,-34.7368107606,,
37180,-25.3504963908,,
37200,-29.8328848411,,
37220,-27.4988085327,,
37240,-29.6102642095,,
37260,-34.1917908417,,
37280,-20.2988688208,,
37300,-23.496646627,,
37320,-23.5406181616,,
37340,-4.8421909289,,
37360,3.28217374504,,
37380,-4.12093162859,,
37400,-19.1990621486,,
37420,-27.3393984893,,
37440,-32.6708922701,,
37460,-29.8302973255,,
37480,-32.3222260685,,
37500,-21.9413915939,,
37520,-26.5341627348,,
37540,-49.434808991,,
37560,-28.1888778579,,
37580,-32.4088890677,,
37600,-21.0407171874,,
37620,-25.4570321709,,
37640,-49.7922551981,,
37660,-34.8129650247,,
37680,-32.2404293822,,
37700,-30.9392715717,,
37720,-34.6884007872,,
37740,-25.9439929408,,
37760,-28.9324579663,,
37780,-41.0733094946,,
37800,-24.6848115603,,
37820,-28.3061653703,,
37840,-21.8705397439,,
37860,-14.0308126854,,
37880,-5.99697131589,,
37900,-13.8326598981,,
37920,-36.0166492881,,
37940,-40.3471832765,,
37960,-32.9057974204,,
37980,-34.9342250185,,
38000,-34.8042605796,,
38020,-31.3982241557,,
38040,-32.2223660182,,
38060,-32.4965173947,,
38080,-30.6073922146,,
38100,-29.5715811228,,
38120,-22.1713309276,,
38140,-27.0493073164,,
38160,-18.5470931617,,
38180,-17.5175337471,,
38200,-29.9664252441,,
38220,-21.1946568364,,
38240,-20.9388042003,,
38260,-16.7238216347,,
38280,-22.8572033374,,
38300,-22.9769231678,,
38320,-15.1388700259,,
38340,-21.8620408656,,
38360,-22.4569593593,,
38380,-8.76325513053,,
38400,-2.63666501237,,
38420,-11.8378030739,,
38440,-27.6730864339,,
38460,-31.7127735609,,
38480,-39.1839045988,,
38500,-41.321595338,,
38520,-47.8142732295,,
38540,-37.6660437665,,
38560,-29.6290003163,,
38580,-21.9557173262,,
38600,-19.7782147706,,
38620,-22.5524520894,,
38640,-27.6046965268,,
38660,-35.4458676976,,
38680,-20.2269961748,,
38700,-21.0270740826,,
38720,-31.8710510223,,
38740,-25.3173535195,,
38760,-34.7521378142,,
38780,-23.0110941525,,
38800,-29.6688735121,,
38820,-24.9621830009,,
38840,-19.5840491099,,
38860,-23.9988517388,,
38880,-26.5097562559,,
38900,-15.6738238082,,
38920,-12.8552423719,,
38940,-20.6772064051,,
38960,-25.0695782608,,
38980,-24.6394273172,,
39000,-31.7990452917,,
39020,-31.1838167605,,
39040,-31.5423120508,,
39060,-29.5079859361,,
39080,-25.3804479212,,
39100,-35.941736742,,
39120,-24.1079026907,,
39140,-21.563156498,,
39160,-29.446980869,,
39180,-36.9082301909,,
39200,-18.4181200644,,
39220,-18.2596237269,,
39240,-33.6671670949,,
39260,-32.6539547496,,
39280,-25.6039922337,,
39300,-18.014026881,,
39320,-21.2255660904,,
39340,-17.9227373177,,
39360,-11.1514664745,,
39380,-13.4346064796,,
39400,-14.8036747428,,
39420,-0.691535728521,,
39440,1.50875276569,,
39460,-13.2618744831,,
39480,-33.5342902744,,
39500,-31.7200906806,,
39520,-23.7593553012,,
39540,-29.3652479957,,
39560,-33.1103945745,,
39580,-25.8390881631,,
39600,-33.6874013356,,
39620,-18.7240171735,,
39640,-21.959637952,,
39660,-15.6330829782,,
39680,-20.6489718898,,
39700,-29.2385518603,,
39720,-22.7228713087,,
39740,-17.1602257048,,
39760,-17.3045611914,,
39780,-31.8376291371,,
39800,-24.298511285,,
39820,-38.588178878,,
39840,-37.5776799961,,
39860,-31.4992345402,,
39880,-24.3053328092,,
39900,-39.7431482824,,
39920,-23.6852525625,,
39940,-7.14401829312,,
39960,-4.20232345869,,
39980,-22.2699564707,,
40000,-16.8303000769,,
40020,-12.177175333,,
40040,-14.9447231508,,
40060,-25.1749949882,,
40080,-31.9993938886,,
40100,-30.9340274295,,
40120,-38.7459251833,,
40140,-12.4459977649,,
40160,-15.1375896509,,
40180,-14.5428061053,,
40200,-14.8233366166,,
40220,-28.8014489138,,
40240,-22.5423957324,,
40260,-21.0701653554,,
40280,-27.732326456,,
40300,-29.0500486735,,
40320,-32.3337492943,,
40340,-26.3315071852,,
40360,-28.0054749254,,
40380,-39.9433829506,,
40400,-18.4774208953,,
40420,-17.7446173628,,
40440,-16.0276952783,,
40460,6.65189136119,,
40480,7.2784515486,,
40500,-6.83376174736,,
40520,-16.332781201,,
40540,-20.2691087786,,
40560,-25.2743948465,,
40580,-21.6579282124,,
40600,-17.9062674147,,
40620,-18.0261355788,,
40640,-20.9513239005,,
40660,-14.7298564317,,
40680,-25.5443275444,,
40700,-11.6644169686,,
40720,-15.4472487923,,
40740,-25.2927303858,,
40760,-18.4868744048,,
40780,-21.2571568185,,
40800,-16.9590588215,,
40820,-31.2165290487,,
40840,-25.3533613916,,
40860,-33.2191932913,,
40880,-28.6886469533,,
40900,-14.7631444492,,
40920,-14.3538791605,,
40940,-11.3333473405,,
40960,-4.29484635687,,
40980,14.309089483,,
41000,14.4814510924,,
41020,-2.37646993859,,
41040,-24.7157535024,,
41060,-19.3000786162,,
41080,-28.4838005996,,
41100,-19.7222706646,,
41120,-21.4480244863,,
41140,-30.4376655729,,
41160,-23.6626513608,,
41180,-13.9660473231,,
41200,-21.5967515049,,
41220,-56.3015357049,,
41240,-23.6012700848,,
41260,-18.0009655451,,
41280,-25.3602941842,,
41300,-28.4398249886,,
41320,-20.0170283892,,
41340,-23.5843363615,,
41360,-22.6388026346,,
41380,-22.6596508752,,
41400,-18.1526789159,,
41420,-10.7097012898,,
41440,-9.11591513837,,
41460,-9.24053190509,,
41480,-10.3128843072,,
41500,11.3537261631,,
41520,9.89095601651,,
41540,-9.8943861049,,
41560,-25.6713189496,,
41580,-18.7920097601,,
41600,-16.2714134438,,
41620,-18.0771688473,,
41640,-21.375519294,,
41660,-23.4904299485,,
41680,-20.0058437778,,
41700,-14.9434436714,,
41720,-19.1920768929,,
41740,-22.3374959519,,
41760,-18.1663221625,,
41780,-12.4081201423,,
41800,-12.5263313241,,
41820,-15.0899957262,,
41840,-18.4635851175,,
41860,-24.7849105416,,
41880,-27.5913892381,,
41900,-32.6578546261,,
41920,-26.0744209836,,
41940,-17.1332385341,,
41960,-14.5136810521,,
41980,-11.2328729958,,
42000,3.8592066144,,
42020,16.9971441872,,
42040,13.9048033878,,
42060,-7.88604855472,,
42080,-21.3208206985,,
42100,-22.7210135979,,
42120,-23.1919224985,,
42140,-24.1096462731,,
42160,-34.7602379818,,
42180,-24.083036259,,
42200,-22.7043439869,,
42220,-22.6463120151,,
42240,-21.9699776431,,
42260,-26.5125118095,,
42280,-34.1847178918,,
42300,-29.0827979704,,
42320,-27.2548612356,,
42340,-26.3710074432,,
42360,-18.1129991484,,
42380,-29.9759530358,,
42400,-29.930973801,,
42420,-29.2977591085,,
42440,-22.6007202738,,
42460,-18.9713575796,,
42480,-19.3496428934,,
42500,-19.6006252015,,
42520,-2.66213232084,,
42540,9.91937536101,,
42560,6.26249416241,,
42580,-14.9387261048,,
42600,-21.3218986663,,
42620,-22.9859760047,,
42640,-21.8828110732,,
42660,-29.8040500717,,
42680,-26.1328177493,,
42700,-18.4079182059,,
42720,-9.92662427313,,
42740,-3.97421790957,,
42760,-9.7353941422,,
42780,-22.7058561335,,
42800,-18.8861472929,,
42820,-12.2033964254,,
42840,-18.889322161,,
42860,-28.4303536488,,
42880,-25.826919977,,
42900,-30.7847314033,,
42920,-25.1798958505,,
42940,-25.5413656272,,
42960,-28.4459723688,,
42980,-28.0608997891,,
43000,-26.0143078421,,
43020,-14.9261502079,,
43040,14.9182663684,,
43060,25.1402117304,,
43080,20.1506658598,,
43100,-11.9457172556,,
43120,-19.0422710339,,
43140,-13.3720642623,,
43160,-15.7376796941,,
43180,-11.9740160182,,
43200,-7.93210198319,,
43220,-9.32947608569,,
43240,-4.47634762898,,
43260,-2.70811533816,,
43280,-11.1078815772,,
43300,-12.8024855074,,
43320,-13.7571479134,,
43340,-9.4578288258,,
43360,-14.6769404133,,
43380,-21.1810494563,,
43400,-15.5365351971,,
43420,-19.3240098775,,
43440,-18.0748229578,,
43460,-19.1107607094,,
43480,-12.0372483366,,
43500,-16.2017007596,,
43520,-8.65840537062,,
43540,-4.52171170147,,
43560,27.865012954,,
43580,36.915132262,,
43600,30.7976152938,,
43620,-7.65313862334,,
43640,-18.694405297,,
43660,-10.166251665,,
43680,-10.7826127988,,
43700,-7.04217664542,,
43720,-6.22829151181,,
43740,-4.91503755758,,
43760,-2.49389502045,,
43780,2.54111450294,,
43800,-1.67870239877,,
43820,-2.79514718763,,
43840,-6.59189785583,,
43860,-11.6228790522,,
43880,-12.7522116032,,
43900,-18.867077307,,
43920,-20.3071462712,,
43940,-18.598677409,,
43960,-17.235882594,,
43980,-2.50860579015,,
44000,-7.84322424935,,
44020,-23.8886115847,,
44040,-16.9295984979,,
44060,-16.9439684423,,
44080,-30.380255747,,
