Optimizations,Input Sound,RMSE (dB)
"(No optimizations)",65508__juskiddink__flute1_cropped,6661.904732290712
,68448__pinkyfinger__piano-g_mono,14023.161590331061
,sin440,308450.249706064
,sin440_sin600,158625.83548200928
,sin600,71731.02103374971
,violin_c,16604.350407154237
,Average,96016.08715859982
detect_in_reverse,65508__juskiddink__flute1_cropped,6669.568944643287
,68448__pinkyfinger__piano-g_mono,13512.084738231617
,sin440,308450.25257034966
,sin440_sin600,158625.9227592098
,sin600,71731.02103374971
,violin_c,16621.91846957366
,Average,95935.1280859596
"detect_in_reverse, interpolate_detected_peaks",65508__juskiddink__flute1_cropped,6240.523412706937
,68448__pinkyfinger__piano-g_mono,7082.663244174647
,sin440,62764.81710333959
,sin440_sin600,41071.288672529154
,sin600,65847.53281037637
,violin_c,16517.216681513448
,Average,33254.00698744003
interpolate_detected_peaks,65508__juskiddink__flute1_cropped,6230.949235673242
,68448__pinkyfinger__piano-g_mono,7113.654098461289
,sin440,62875.21682402013
,sin440_sin600,40931.78717019698
,sin600,65847.53281037637
,violin_c,16361.781671021232
,Average,33226.82030162487
zero_pad,65508__juskiddink__flute1_cropped,6823.79161881522
,68448__pinkyfinger__piano-g_mono,8313.775453030472
,sin440,377023.92027470516
,sin440_sin600,199768.7854012624
,sin600,78670.89752045275
,violin_c,16527.235850557347
,Average,114521.40101980389
"zero_pad, detect_in_reverse",65508__juskiddink__flute1_cropped,6824.855200075014
,68448__pinkyfinger__piano-g_mono,8382.051758261247
,sin440,377502.13057177176
,sin440_sin600,200129.47572407464
,sin600,78670.89752045275
,violin_c,16533.50922816811
,Average,114673.82000046724
"zero_pad, detect_in_reverse, interpolate_detected_peaks",65508__juskiddink__flute1_cropped,6252.387063750409
,68448__pinkyfinger__piano-g_mono,7286.0262253507935
,sin440,23388.6405650534
,sin440_sin600,20228.55395277079
,sin600,115457.52897930483
,violin_c,16487.083644919585
,Average,31516.70340519163
"zero_pad, interpolate_detected_peaks",65508__juskiddink__flute1_cropped,6268.529777080127
,68448__pinkyfinger__piano-g_mono,7665.8543163481745
,sin440,23332.17503994866
,sin440_sin600,20363.044826063007
,sin600,115457.52897930483
,violin_c,16486.218191001786
,Average,31595.558521624433
